{
    "name": "Ddubs",
    "image" : "img/Ddubs.avif",
    "bio": "The first assistant to the NixOS Zen Kernel Maintainer 😆",
    "social": [
        { "linkedin": "https://linkedin.com/in/donewilliams" },
        { "gitlab": "https://gitlab.com/dwilliam62" }
    ]
}

